{
    "asset" : {
        "generator" : "Khronos glTF Blender I/O v3.3.27",
        "version" : "2.0"
    },
    "scene" : 0,
    "scenes" : [
        {
            "name" : "Scene",
            "nodes" : [
                0,
                42,
                43,
                44
            ]
        }
    ],
    "nodes" : [
        {
            "name" : "Empty",
            "rotation" : [
                0.7071068286895752,
                0,
                0,
                0.7071068286895752
            ],
            "translation" : [
                0,
                0,
                -3.376121997833252
            ]
        },
        {
            "mesh" : 0,
            "name" : "Cylinder",
            "rotation" : [
                0.7071068286895752,
                0,
                0,
                0.7071068286895752
            ],
            "scale" : [
                0.02263825386762619,
                0.04176127910614014,
                0.02263825386762619
            ],
            "translation" : [
                -0.9309332370758057,
                0.9731526374816895,
                0.9601495862007141
            ]
        },
        {
            "mesh" : 0,
            "name" : "Cylinder.001",
            "rotation" : [
                0.7071068286895752,
                0,
                0,
                0.7071068286895752
            ],
            "scale" : [
                0.02263825386762619,
                0.04176127910614014,
                0.02263825386762619
            ],
            "translation" : [
                0.4198133945465088,
                0.9731526374816895,
                0.9601495862007141
            ]
        },
        {
            "mesh" : 0,
            "name" : "Cylinder.002",
            "rotation" : [
                0.7071068286895752,
                0,
                0,
                0.7071068286895752
            ],
            "scale" : [
                0.02263825386762619,
                0.04176127910614014,
                0.02263825386762619
            ],
            "translation" : [
                -0.9309332370758057,
                -1.140796422958374,
                0.9601495862007141
            ]
        },
        {
            "mesh" : 0,
            "name" : "Cylinder.003",
            "rotation" : [
                0.7071068286895752,
                0,
                0,
                0.7071068286895752
            ],
            "scale" : [
                0.02263825386762619,
                0.04176127910614014,
                0.02263825386762619
            ],
            "translation" : [
                0.4198133945465088,
                -1.140796422958374,
                0.9601495862007141
            ]
        },
        {
            "mesh" : 1,
            "name" : "Cylinder.004",
            "rotation" : [
                0.7071068286895752,
                0,
                0,
                0.7071068286895752
            ],
            "scale" : [
                0.02263825386762619,
                0.04176127910614014,
                0.02263825386762619
            ],
            "translation" : [
                1.59126877784729,
                0.5806488990783691,
                0.8496708273887634
            ]
        },
        {
            "mesh" : 1,
            "name" : "Cylinder.005",
            "rotation" : [
                0.7071068286895752,
                0,
                0,
                0.7071068286895752
            ],
            "scale" : [
                0.02263825386762619,
                0.04176127910614014,
                0.02263825386762619
            ],
            "translation" : [
                2.9420156478881836,
                0.5806488990783691,
                0.8496708273887634
            ]
        },
        {
            "mesh" : 2,
            "name" : "Cylinder.006",
            "rotation" : [
                0.7071068286895752,
                0,
                0,
                0.7071068286895752
            ],
            "scale" : [
                0.02263825386762619,
                0.04176127910614014,
                0.02263825386762619
            ],
            "translation" : [
                3.597400665283203,
                1.7726984024047852,
                0.904229998588562
            ]
        },
        {
            "mesh" : 2,
            "name" : "Cylinder.007",
            "rotation" : [
                0.7071068286895752,
                0,
                0,
                0.7071068286895752
            ],
            "scale" : [
                0.02263825386762619,
                0.04176127910614014,
                0.02263825386762619
            ],
            "translation" : [
                4.948147773742676,
                1.7726984024047852,
                0.904229998588562
            ]
        },
        {
            "mesh" : 3,
            "name" : "Cylinder.008",
            "rotation" : [
                0.7071068286895752,
                0,
                0,
                0.7071068286895752
            ],
            "scale" : [
                0.02263825386762619,
                0.04176127910614014,
                0.02263825386762619
            ],
            "translation" : [
                3.597400665283203,
                3.8451199531555176,
                0.904229998588562
            ]
        },
        {
            "mesh" : 3,
            "name" : "Cylinder.009",
            "rotation" : [
                0.7071068286895752,
                0,
                0,
                0.7071068286895752
            ],
            "scale" : [
                0.02263825386762619,
                0.04176127910614014,
                0.02263825386762619
            ],
            "translation" : [
                4.948147773742676,
                3.8451199531555176,
                0.904229998588562
            ]
        },
        {
            "mesh" : 4,
            "name" : "Cylinder.010",
            "rotation" : [
                0.7071068286895752,
                0,
                0,
                0.7071068286895752
            ],
            "scale" : [
                0.02263825386762619,
                0.04176127910614014,
                0.02263825386762619
            ],
            "translation" : [
                1.59126877784729,
                -3.8656373023986816,
                0.8496708273887634
            ]
        },
        {
            "mesh" : 4,
            "name" : "Cylinder.011",
            "rotation" : [
                0.7071068286895752,
                0,
                0,
                0.7071068286895752
            ],
            "scale" : [
                0.02263825386762619,
                0.04176127910614014,
                0.02263825386762619
            ],
            "translation" : [
                2.9420156478881836,
                -3.8656373023986816,
                0.8496708273887634
            ]
        },
        {
            "mesh" : 5,
            "name" : "Cylinder.012",
            "rotation" : [
                0.7071068286895752,
                0,
                0,
                0.7071068286895752
            ],
            "scale" : [
                0.02263825386762619,
                0.04176127910614014,
                0.02263825386762619
            ],
            "translation" : [
                3.7013707160949707,
                -1.5545730590820312,
                0.9157280921936035
            ]
        },
        {
            "mesh" : 5,
            "name" : "Cylinder.013",
            "rotation" : [
                0.7071068286895752,
                0,
                0,
                0.7071068286895752
            ],
            "scale" : [
                0.02263825386762619,
                0.04176127910614014,
                0.02263825386762619
            ],
            "translation" : [
                4.877671241760254,
                -1.5545730590820312,
                0.9157280921936035
            ]
        },
        {
            "mesh" : 6,
            "name" : "Cylinder.014",
            "rotation" : [
                0.7071068286895752,
                0,
                0,
                0.7071068286895752
            ],
            "scale" : [
                0.02263825386762619,
                0.04176127910614014,
                0.02263825386762619
            ],
            "translation" : [
                3.7013707160949707,
                1.088287353515625,
                0.9157280921936035
            ]
        },
        {
            "mesh" : 6,
            "name" : "Cylinder.015",
            "rotation" : [
                0.7071068286895752,
                0,
                0,
                0.7071068286895752
            ],
            "scale" : [
                0.02263825386762619,
                0.04176127910614014,
                0.02263825386762619
            ],
            "translation" : [
                4.877671241760254,
                1.088287353515625,
                0.9157280921936035
            ]
        },
        {
            "mesh" : 7,
            "name" : "Cylinder.016",
            "rotation" : [
                0.7071068286895752,
                0,
                0,
                0.7071068286895752
            ],
            "scale" : [
                0.02263825386762619,
                0.04176127910614014,
                0.02263825386762619
            ],
            "translation" : [
                5.80344820022583,
                0.5126152038574219,
                0.606580376625061
            ]
        },
        {
            "mesh" : 7,
            "name" : "Cylinder.017",
            "rotation" : [
                0.7071068286895752,
                0,
                0,
                0.7071068286895752
            ],
            "scale" : [
                0.02263825386762619,
                0.04176127910614014,
                0.02263825386762619
            ],
            "translation" : [
                6.857636451721191,
                0.5126152038574219,
                0.606580376625061
            ]
        },
        {
            "mesh" : 8,
            "name" : "Cylinder.018",
            "rotation" : [
                0.7071068286895752,
                0,
                0,
                0.7071068286895752
            ],
            "scale" : [
                0.02263825386762619,
                0.04176127910614014,
                0.02263825386762619
            ],
            "translation" : [
                5.80344820022583,
                -1.580739974975586,
                0.606580376625061
            ]
        },
        {
            "mesh" : 8,
            "name" : "Cylinder.019",
            "rotation" : [
                0.7071068286895752,
                0,
                0,
                0.7071068286895752
            ],
            "scale" : [
                0.02263825386762619,
                0.04176127910614014,
                0.02263825386762619
            ],
            "translation" : [
                6.84891414642334,
                -1.580739974975586,
                0.606580376625061
            ]
        },
        {
            "mesh" : 9,
            "name" : "Cylinder.020",
            "rotation" : [
                0.7071068286895752,
                0,
                0,
                0.7071068286895752
            ],
            "scale" : [
                0.02263825386762619,
                0.04176127910614014,
                0.02263825386762619
            ],
            "translation" : [
                1.8215378522872925,
                1.2609891891479492,
                0.7771838307380676
            ]
        },
        {
            "mesh" : 10,
            "name" : "Cylinder.021",
            "rotation" : [
                0.7071068286895752,
                0,
                0,
                0.7071068286895752
            ],
            "scale" : [
                0.02263825386762619,
                0.04176127910614014,
                0.02263825386762619
            ],
            "translation" : [
                1.8215378522872925,
                1.9622626304626465,
                0.7771838307380676
            ]
        },
        {
            "mesh" : 11,
            "name" : "Cylinder.022",
            "rotation" : [
                0.7071068286895752,
                0,
                0,
                0.7071068286895752
            ],
            "scale" : [
                0.02263825386762619,
                0.04176127910614014,
                0.02263825386762619
            ],
            "translation" : [
                2.8786821365356445,
                1.9622626304626465,
                0.7771838307380676
            ]
        },
        {
            "mesh" : 12,
            "name" : "Cylinder.023",
            "rotation" : [
                0.7071068286895752,
                0,
                0,
                0.7071068286895752
            ],
            "scale" : [
                0.02263825386762619,
                0.04176127910614014,
                0.02263825386762619
            ],
            "translation" : [
                2.8786821365356445,
                1.260988712310791,
                0.7771838307380676
            ]
        },
        {
            "mesh" : 13,
            "name" : "Cylinder.024",
            "rotation" : [
                0.7071068286895752,
                0,
                0,
                0.7071068286895752
            ],
            "scale" : [
                0.02263825386762619,
                0.04176127910614014,
                0.02263825386762619
            ],
            "translation" : [
                2.177408218383789,
                2.47513484954834,
                0.7899615168571472
            ]
        },
        {
            "mesh" : 14,
            "name" : "Cylinder.025",
            "rotation" : [
                0.7071068286895752,
                0,
                0,
                0.7071068286895752
            ],
            "scale" : [
                0.02263825386762619,
                0.04176127910614014,
                0.02263825386762619
            ],
            "translation" : [
                3.0461504459381104,
                2.464667797088623,
                0.7899615168571472
            ]
        },
        {
            "mesh" : 15,
            "name" : "Cylinder.026",
            "rotation" : [
                0.7071068286895752,
                0,
                0,
                0.7071068286895752
            ],
            "scale" : [
                0.02263825386762619,
                0.04176127910614014,
                0.02263825386762619
            ],
            "translation" : [
                2.177408218383789,
                3.343876361846924,
                0.7899615168571472
            ]
        },
        {
            "mesh" : 16,
            "name" : "Cylinder.027",
            "rotation" : [
                0.7071068286895752,
                0,
                0,
                0.7071068286895752
            ],
            "scale" : [
                0.02263825386762619,
                0.04176127910614014,
                0.02263825386762619
            ],
            "translation" : [
                3.0461504459381104,
                3.3334097862243652,
                0.7899615168571472
            ]
        },
        {
            "mesh" : 17,
            "name" : "Cylinder.028",
            "rotation" : [
                0.7071068286895752,
                0,
                0,
                0.7071068286895752
            ],
            "scale" : [
                0.02263825386762619,
                0.04176127910614014,
                0.02263825386762619
            ],
            "translation" : [
                5.702967643737793,
                2.6426033973693848,
                0.7138551473617554
            ]
        },
        {
            "mesh" : 18,
            "name" : "Cylinder.029",
            "rotation" : [
                0.7071068286895752,
                0,
                0,
                0.7071068286895752
            ],
            "scale" : [
                0.02263825386762619,
                0.04176127910614014,
                0.02263825386762619
            ],
            "translation" : [
                6.908390998840332,
                2.6426033973693848,
                0.7138551473617554
            ]
        },
        {
            "mesh" : 19,
            "name" : "Cylinder.030",
            "rotation" : [
                0.7071068286895752,
                0,
                0,
                0.7071068286895752
            ],
            "scale" : [
                0.02263825386762619,
                0.04176127910614014,
                0.02263825386762619
            ],
            "translation" : [
                5.702967643737793,
                3.8288378715515137,
                0.7138551473617554
            ]
        },
        {
            "mesh" : 20,
            "name" : "Cylinder.031",
            "rotation" : [
                0.7071068286895752,
                0,
                0,
                0.7071068286895752
            ],
            "scale" : [
                0.02263825386762619,
                0.04176127910614014,
                0.02263825386762619
            ],
            "translation" : [
                6.908390998840332,
                3.8288378715515137,
                0.7138551473617554
            ]
        },
        {
            "mesh" : 21,
            "name" : "Cylinder.032",
            "rotation" : [
                0.7071068286895752,
                0,
                0,
                0.7071068286895752
            ],
            "scale" : [
                0.02263825386762619,
                0.04176127910614014,
                0.02263825386762619
            ],
            "translation" : [
                5.7359724044799805,
                1.7703723907470703,
                0.8048481941223145
            ]
        },
        {
            "mesh" : 22,
            "name" : "Cylinder.033",
            "rotation" : [
                0.7071068286895752,
                0,
                0,
                0.7071068286895752
            ],
            "scale" : [
                0.02263825386762619,
                0.04176127910614014,
                0.02263825386762619
            ],
            "translation" : [
                6.846398830413818,
                1.7703723907470703,
                0.8048481941223145
            ]
        },
        {
            "mesh" : 23,
            "name" : "Conveyer",
            "scale" : [
                0.9387590885162354,
                0.9387590885162354,
                0.9387590885162354
            ],
            "translation" : [
                1.6010204553604126,
                -3.378153085708618,
                0
            ]
        },
        {
            "mesh" : 24,
            "name" : "conveyer belt",
            "scale" : [
                0.3391294777393341,
                0.3391294777393341,
                0.3391294777393341
            ],
            "translation" : [
                0.9894305467605591,
                -3.76560115814209,
                0
            ]
        },
        {
            "mesh" : 25,
            "name" : "output pipe",
            "rotation" : [
                0,
                0,
                -0.7071067094802856,
                0.7071068286895752
            ],
            "scale" : [
                0.3869291841983795,
                0.2633880376815796,
                0.3869291841983795
            ],
            "translation" : [
                5.45147705078125,
                -0.5069904327392578,
                0
            ]
        },
        {
            "mesh" : 26,
            "name" : "track",
            "scale" : [
                2.92736554145813,
                2.92736554145813,
                2.92736554145813
            ],
            "translation" : [
                0.7623363137245178,
                -3.655165910720825,
                0.0025623906403779984
            ]
        },
        {
            "name" : "track curve",
            "rotation" : [
                0.7071068286895752,
                0,
                0,
                0.7071068286895752
            ],
            "scale" : [
                2.92736554145813,
                2.92736554145813,
                2.92736554145813
            ],
            "translation" : [
                3.1860315799713135,
                -3.730379104614258,
                0
            ]
        },
        {
            "mesh" : 27,
            "name" : "Tube holder",
            "scale" : [
                0.6666824221611023,
                0.6666824221611023,
                0.6666824221611023
            ],
            "translation" : [
                5.748995780944824,
                0,
                0
            ]
        },
        {
            "children" : [
                35,
                36,
                37,
                38,
                39,
                40
            ],
            "mesh" : 28,
            "name" : "main body",
            "scale" : [
                0.8815959095954895,
                0.8815959095954895,
                0.8815959095954895
            ],
            "translation" : [
                2.3806519508361816,
                0,
                0
            ]
        },
        {
            "children" : [
                1,
                2,
                3,
                4,
                5,
                6,
                7,
                8,
                9,
                10,
                11,
                12,
                13,
                14,
                15,
                16,
                17,
                18,
                19,
                20,
                21,
                22,
                23,
                24,
                25,
                26,
                27,
                28,
                29,
                30,
                31,
                32,
                33,
                34,
                41
            ],
            "mesh" : 29,
            "name" : "Input box",
            "scale" : [
                0.38748371601104736,
                0.38748371601104736,
                0.38748371601104736
            ],
            "translation" : [
                -1.431094765663147,
                1.8113431930541992,
                0
            ]
        },
        {
            "mesh" : 30,
            "name" : "file1",
            "rotation" : [
                0.7071068286895752,
                0,
                0,
                0.7071068286895752
            ],
            "scale" : [
                0.1871756762266159,
                0.1871756762266159,
                0.22803090512752533
            ],
            "translation" : [
                -1.5340830087661743,
                2.905799388885498,
                0
            ]
        },
        {
            "mesh" : 31,
            "name" : "file2",
            "rotation" : [
                0.7071068286895752,
                0,
                0,
                0.7071068286895752
            ],
            "scale" : [
                0.10016950219869614,
                0.10016950219869614,
                0.12203371524810791
            ],
            "translation" : [
                1.658142328262329,
                1.2320044040679932,
                0.02347777970135212
            ]
        }
    ],
    "animations" : [
        {
            "channels" : [
                {
                    "sampler" : 0,
                    "target" : {
                        "node" : 37,
                        "path" : "translation"
                    }
                },
                {
                    "sampler" : 1,
                    "target" : {
                        "node" : 37,
                        "path" : "rotation"
                    }
                },
                {
                    "sampler" : 2,
                    "target" : {
                        "node" : 37,
                        "path" : "scale"
                    }
                }
            ],
            "name" : "output pipeAction",
            "samplers" : [
                {
                    "input" : 106,
                    "interpolation" : "LINEAR",
                    "output" : 107
                },
                {
                    "input" : 108,
                    "interpolation" : "LINEAR",
                    "output" : 109
                },
                {
                    "input" : 106,
                    "interpolation" : "LINEAR",
                    "output" : 110
                }
            ]
        },
        {
            "channels" : [
                {
                    "sampler" : 0,
                    "target" : {
                        "node" : 38,
                        "path" : "translation"
                    }
                },
                {
                    "sampler" : 1,
                    "target" : {
                        "node" : 38,
                        "path" : "rotation"
                    }
                }
            ],
            "name" : "trackAction",
            "samplers" : [
                {
                    "input" : 111,
                    "interpolation" : "LINEAR",
                    "output" : 112
                },
                {
                    "input" : 111,
                    "interpolation" : "LINEAR",
                    "output" : 113
                }
            ]
        },
        {
            "channels" : [
                {
                    "sampler" : 0,
                    "target" : {
                        "node" : 38,
                        "path" : "translation"
                    }
                },
                {
                    "sampler" : 1,
                    "target" : {
                        "node" : 38,
                        "path" : "rotation"
                    }
                }
            ],
            "name" : "trackActionForward",
            "samplers" : [
                {
                    "input" : 114,
                    "interpolation" : "LINEAR",
                    "output" : 115
                },
                {
                    "input" : 116,
                    "interpolation" : "STEP",
                    "output" : 117
                }
            ]
        },
        {
            "channels" : [
                {
                    "sampler" : 0,
                    "target" : {
                        "node" : 43,
                        "path" : "translation"
                    }
                }
            ],
            "name" : "fileInputAction",
            "samplers" : [
                {
                    "input" : 118,
                    "interpolation" : "LINEAR",
                    "output" : 119
                }
            ]
        },
        {
            "channels" : [
                {
                    "sampler" : 0,
                    "target" : {
                        "node" : 44,
                        "path" : "translation"
                    }
                }
            ],
            "name" : "fileOutputAction",
            "samplers" : [
                {
                    "input" : 118,
                    "interpolation" : "LINEAR",
                    "output" : 120
                }
            ]
        }
    ],
    "materials" : [
        {
            "doubleSided" : true,
            "name" : "mainColor",
            "pbrMetallicRoughness" : {
                "baseColorTexture" : {
                    "index" : 0
                },
                "metallicFactor" : 0,
                "roughnessFactor" : 0.5
            }
        }
    ],
    "meshes" : [
        {
            "name" : "Cylinder.001",
            "primitives" : [
                {
                    "attributes" : {
                        "POSITION" : 0,
                        "NORMAL" : 1,
                        "TEXCOORD_0" : 2
                    },
                    "indices" : 3,
                    "material" : 0
                }
            ]
        },
        {
            "name" : "Cylinder.035",
            "primitives" : [
                {
                    "attributes" : {
                        "POSITION" : 4,
                        "NORMAL" : 5,
                        "TEXCOORD_0" : 6
                    },
                    "indices" : 3,
                    "material" : 0
                }
            ]
        },
        {
            "name" : "Cylinder.036",
            "primitives" : [
                {
                    "attributes" : {
                        "POSITION" : 7,
                        "NORMAL" : 8,
                        "TEXCOORD_0" : 9
                    },
                    "indices" : 3,
                    "material" : 0
                }
            ]
        },
        {
            "name" : "Cylinder.037",
            "primitives" : [
                {
                    "attributes" : {
                        "POSITION" : 10,
                        "NORMAL" : 11,
                        "TEXCOORD_0" : 12
                    },
                    "indices" : 3,
                    "material" : 0
                }
            ]
        },
        {
            "name" : "Cylinder.038",
            "primitives" : [
                {
                    "attributes" : {
                        "POSITION" : 13,
                        "NORMAL" : 14,
                        "TEXCOORD_0" : 15
                    },
                    "indices" : 3,
                    "material" : 0
                }
            ]
        },
        {
            "name" : "Cylinder.039",
            "primitives" : [
                {
                    "attributes" : {
                        "POSITION" : 16,
                        "NORMAL" : 17,
                        "TEXCOORD_0" : 18
                    },
                    "indices" : 3,
                    "material" : 0
                }
            ]
        },
        {
            "name" : "Cylinder.040",
            "primitives" : [
                {
                    "attributes" : {
                        "POSITION" : 19,
                        "NORMAL" : 20,
                        "TEXCOORD_0" : 21
                    },
                    "indices" : 3,
                    "material" : 0
                }
            ]
        },
        {
            "name" : "Cylinder.041",
            "primitives" : [
                {
                    "attributes" : {
                        "POSITION" : 22,
                        "NORMAL" : 23,
                        "TEXCOORD_0" : 24
                    },
                    "indices" : 3,
                    "material" : 0
                }
            ]
        },
        {
            "name" : "Cylinder.042",
            "primitives" : [
                {
                    "attributes" : {
                        "POSITION" : 25,
                        "NORMAL" : 26,
                        "TEXCOORD_0" : 27
                    },
                    "indices" : 3,
                    "material" : 0
                }
            ]
        },
        {
            "name" : "Cylinder.043",
            "primitives" : [
                {
                    "attributes" : {
                        "POSITION" : 28,
                        "NORMAL" : 29,
                        "TEXCOORD_0" : 30
                    },
                    "indices" : 3,
                    "material" : 0
                }
            ]
        },
        {
            "name" : "Cylinder.044",
            "primitives" : [
                {
                    "attributes" : {
                        "POSITION" : 31,
                        "NORMAL" : 32,
                        "TEXCOORD_0" : 33
                    },
                    "indices" : 3,
                    "material" : 0
                }
            ]
        },
        {
            "name" : "Cylinder.045",
            "primitives" : [
                {
                    "attributes" : {
                        "POSITION" : 34,
                        "NORMAL" : 35,
                        "TEXCOORD_0" : 36
                    },
                    "indices" : 3,
                    "material" : 0
                }
            ]
        },
        {
            "name" : "Cylinder.046",
            "primitives" : [
                {
                    "attributes" : {
                        "POSITION" : 37,
                        "NORMAL" : 38,
                        "TEXCOORD_0" : 39
                    },
                    "indices" : 3,
                    "material" : 0
                }
            ]
        },
        {
            "name" : "Cylinder.047",
            "primitives" : [
                {
                    "attributes" : {
                        "POSITION" : 40,
                        "NORMAL" : 41,
                        "TEXCOORD_0" : 42
                    },
                    "indices" : 3,
                    "material" : 0
                }
            ]
        },
        {
            "name" : "Cylinder.048",
            "primitives" : [
                {
                    "attributes" : {
                        "POSITION" : 43,
                        "NORMAL" : 44,
                        "TEXCOORD_0" : 45
                    },
                    "indices" : 3,
                    "material" : 0
                }
            ]
        },
        {
            "name" : "Cylinder.049",
            "primitives" : [
                {
                    "attributes" : {
                        "POSITION" : 46,
                        "NORMAL" : 47,
                        "TEXCOORD_0" : 48
                    },
                    "indices" : 3,
                    "material" : 0
                }
            ]
        },
        {
            "name" : "Cylinder.050",
            "primitives" : [
                {
                    "attributes" : {
                        "POSITION" : 49,
                        "NORMAL" : 50,
                        "TEXCOORD_0" : 51
                    },
                    "indices" : 3,
                    "material" : 0
                }
            ]
        },
        {
            "name" : "Cylinder.051",
            "primitives" : [
                {
                    "attributes" : {
                        "POSITION" : 52,
                        "NORMAL" : 53,
                        "TEXCOORD_0" : 54
                    },
                    "indices" : 3,
                    "material" : 0
                }
            ]
        },
        {
            "name" : "Cylinder.052",
            "primitives" : [
                {
                    "attributes" : {
                        "POSITION" : 55,
                        "NORMAL" : 56,
                        "TEXCOORD_0" : 57
                    },
                    "indices" : 3,
                    "material" : 0
                }
            ]
        },
        {
            "name" : "Cylinder.053",
            "primitives" : [
                {
                    "attributes" : {
                        "POSITION" : 58,
                        "NORMAL" : 59,
                        "TEXCOORD_0" : 60
                    },
                    "indices" : 3,
                    "material" : 0
                }
            ]
        },
        {
            "name" : "Cylinder.054",
            "primitives" : [
                {
                    "attributes" : {
                        "POSITION" : 61,
                        "NORMAL" : 62,
                        "TEXCOORD_0" : 63
                    },
                    "indices" : 3,
                    "material" : 0
                }
            ]
        },
        {
            "name" : "Cylinder.055",
            "primitives" : [
                {
                    "attributes" : {
                        "POSITION" : 64,
                        "NORMAL" : 65,
                        "TEXCOORD_0" : 66
                    },
                    "indices" : 3,
                    "material" : 0
                }
            ]
        },
        {
            "name" : "Cylinder.056",
            "primitives" : [
                {
                    "attributes" : {
                        "POSITION" : 67,
                        "NORMAL" : 68,
                        "TEXCOORD_0" : 69
                    },
                    "indices" : 3,
                    "material" : 0
                }
            ]
        },
        {
            "name" : "Cube.002",
            "primitives" : [
                {
                    "attributes" : {
                        "POSITION" : 70,
                        "NORMAL" : 71,
                        "TEXCOORD_0" : 72
                    },
                    "indices" : 73,
                    "material" : 0
                }
            ]
        },
        {
            "name" : "Cube.003",
            "primitives" : [
                {
                    "attributes" : {
                        "POSITION" : 74,
                        "NORMAL" : 75,
                        "TEXCOORD_0" : 76
                    },
                    "indices" : 77,
                    "material" : 0
                }
            ]
        },
        {
            "name" : "Cylinder",
            "primitives" : [
                {
                    "attributes" : {
                        "POSITION" : 78,
                        "NORMAL" : 79,
                        "TEXCOORD_0" : 80
                    },
                    "indices" : 81,
                    "material" : 0
                }
            ]
        },
        {
            "name" : "Plane.003",
            "primitives" : [
                {
                    "attributes" : {
                        "POSITION" : 82,
                        "NORMAL" : 83,
                        "TEXCOORD_0" : 84
                    },
                    "indices" : 85,
                    "material" : 0
                }
            ]
        },
        {
            "name" : "Cube.004",
            "primitives" : [
                {
                    "attributes" : {
                        "POSITION" : 86,
                        "NORMAL" : 87,
                        "TEXCOORD_0" : 88
                    },
                    "indices" : 89
                }
            ]
        },
        {
            "name" : "main body",
            "primitives" : [
                {
                    "attributes" : {
                        "POSITION" : 90,
                        "NORMAL" : 91,
                        "TEXCOORD_0" : 92
                    },
                    "indices" : 93,
                    "material" : 0
                }
            ]
        },
        {
            "name" : "Cube",
            "primitives" : [
                {
                    "attributes" : {
                        "POSITION" : 94,
                        "NORMAL" : 95,
                        "TEXCOORD_0" : 96
                    },
                    "indices" : 97,
                    "material" : 0
                }
            ]
        },
        {
            "name" : "Plane",
            "primitives" : [
                {
                    "attributes" : {
                        "POSITION" : 98,
                        "NORMAL" : 99,
                        "TEXCOORD_0" : 100
                    },
                    "indices" : 101
                }
            ]
        },
        {
            "name" : "Plane.001",
            "primitives" : [
                {
                    "attributes" : {
                        "POSITION" : 102,
                        "NORMAL" : 103,
                        "TEXCOORD_0" : 104
                    },
                    "indices" : 105
                }
            ]
        }
    ],
    "textures" : [
        {
            "sampler" : 0,
            "source" : 0
        }
    ],
    "images" : [
        {
            "mimeType" : "image/png",
            "name" : "allColors",
            "uri" : "Textures/allColors.png"
        }
    ],
    "accessors" : [
        {
            "bufferView" : 0,
            "componentType" : 5126,
            "count" : 418,
            "max" : [
                2.2107279300689697,
                1.2957401275634766,
                2.2107279300689697
            ],
            "min" : [
                -2.2107279300689697,
                -1,
                -2.2107279300689697
            ],
            "type" : "VEC3"
        },
        {
            "bufferView" : 1,
            "componentType" : 5126,
            "count" : 418,
            "type" : "VEC3"
        },
        {
            "bufferView" : 2,
            "componentType" : 5126,
            "count" : 418,
            "type" : "VEC2"
        },
        {
            "bufferView" : 3,
            "componentType" : 5123,
            "count" : 756,
            "type" : "SCALAR"
        },
        {
            "bufferView" : 4,
            "componentType" : 5126,
            "count" : 418,
            "max" : [
                2.2107279300689697,
                1.2957401275634766,
                2.2107279300689697
            ],
            "min" : [
                -2.2107279300689697,
                -1,
                -2.2107279300689697
            ],
            "type" : "VEC3"
        },
        {
            "bufferView" : 5,
            "componentType" : 5126,
            "count" : 418,
            "type" : "VEC3"
        },
        {
            "bufferView" : 6,
            "componentType" : 5126,
            "count" : 418,
            "type" : "VEC2"
        },
        {
            "bufferView" : 7,
            "componentType" : 5126,
            "count" : 418,
            "max" : [
                2.2107279300689697,
                1.2957401275634766,
                2.2107279300689697
            ],
            "min" : [
                -2.2107279300689697,
                -1,
                -2.2107279300689697
            ],
            "type" : "VEC3"
        },
        {
            "bufferView" : 8,
            "componentType" : 5126,
            "count" : 418,
            "type" : "VEC3"
        },
        {
            "bufferView" : 9,
            "componentType" : 5126,
            "count" : 418,
            "type" : "VEC2"
        },
        {
            "bufferView" : 10,
            "componentType" : 5126,
            "count" : 418,
            "max" : [
                2.2107279300689697,
                1.2957401275634766,
                2.2107279300689697
            ],
            "min" : [
                -2.2107279300689697,
                -1,
                -2.2107279300689697
            ],
            "type" : "VEC3"
        },
        {
            "bufferView" : 11,
            "componentType" : 5126,
            "count" : 418,
            "type" : "VEC3"
        },
        {
            "bufferView" : 12,
            "componentType" : 5126,
            "count" : 418,
            "type" : "VEC2"
        },
        {
            "bufferView" : 13,
            "componentType" : 5126,
            "count" : 418,
            "max" : [
                2.2107279300689697,
                1.2957401275634766,
                2.2107279300689697
            ],
            "min" : [
                -2.2107279300689697,
                -1,
                -2.2107279300689697
            ],
            "type" : "VEC3"
        },
        {
            "bufferView" : 14,
            "componentType" : 5126,
            "count" : 418,
            "type" : "VEC3"
        },
        {
            "bufferView" : 15,
            "componentType" : 5126,
            "count" : 418,
            "type" : "VEC2"
        },
        {
            "bufferView" : 16,
            "componentType" : 5126,
            "count" : 418,
            "max" : [
                2.2107279300689697,
                1.2957401275634766,
                2.2107279300689697
            ],
            "min" : [
                -2.2107279300689697,
                -1,
                -2.2107279300689697
            ],
            "type" : "VEC3"
        },
        {
            "bufferView" : 17,
            "componentType" : 5126,
            "count" : 418,
            "type" : "VEC3"
        },
        {
            "bufferView" : 18,
            "componentType" : 5126,
            "count" : 418,
            "type" : "VEC2"
        },
        {
            "bufferView" : 19,
            "componentType" : 5126,
            "count" : 418,
            "max" : [
                2.2107279300689697,
                1.2957401275634766,
                2.2107279300689697
            ],
            "min" : [
                -2.2107279300689697,
                -1,
                -2.2107279300689697
            ],
            "type" : "VEC3"
        },
        {
            "bufferView" : 20,
            "componentType" : 5126,
            "count" : 418,
            "type" : "VEC3"
        },
        {
            "bufferView" : 21,
            "componentType" : 5126,
            "count" : 418,
            "type" : "VEC2"
        },
        {
            "bufferView" : 22,
            "componentType" : 5126,
            "count" : 418,
            "max" : [
                2.2107279300689697,
                1.2957401275634766,
                2.2107279300689697
            ],
            "min" : [
                -2.2107279300689697,
                -1,
                -2.2107279300689697
            ],
            "type" : "VEC3"
        },
        {
            "bufferView" : 23,
            "componentType" : 5126,
            "count" : 418,
            "type" : "VEC3"
        },
        {
            "bufferView" : 24,
            "componentType" : 5126,
            "count" : 418,
            "type" : "VEC2"
        },
        {
            "bufferView" : 25,
            "componentType" : 5126,
            "count" : 418,
            "max" : [
                2.2107279300689697,
                1.2957401275634766,
                2.2107279300689697
            ],
            "min" : [
                -2.2107279300689697,
                -1,
                -2.2107279300689697
            ],
            "type" : "VEC3"
        },
        {
            "bufferView" : 26,
            "componentType" : 5126,
            "count" : 418,
            "type" : "VEC3"
        },
        {
            "bufferView" : 27,
            "componentType" : 5126,
            "count" : 418,
            "type" : "VEC2"
        },
        {
            "bufferView" : 28,
            "componentType" : 5126,
            "count" : 418,
            "max" : [
                2.2107279300689697,
                1.2957401275634766,
                2.2107279300689697
            ],
            "min" : [
                -2.2107279300689697,
                -1,
                -2.2107279300689697
            ],
            "type" : "VEC3"
        },
        {
            "bufferView" : 29,
            "componentType" : 5126,
            "count" : 418,
            "type" : "VEC3"
        },
        {
            "bufferView" : 30,
            "componentType" : 5126,
            "count" : 418,
            "type" : "VEC2"
        },
        {
            "bufferView" : 31,
            "componentType" : 5126,
            "count" : 418,
            "max" : [
                2.2107279300689697,
                1.2957401275634766,
                2.2107279300689697
            ],
            "min" : [
                -2.2107279300689697,
                -1,
                -2.2107279300689697
            ],
            "type" : "VEC3"
        },
        {
            "bufferView" : 32,
            "componentType" : 5126,
            "count" : 418,
            "type" : "VEC3"
        },
        {
            "bufferView" : 33,
            "componentType" : 5126,
            "count" : 418,
            "type" : "VEC2"
        },
        {
            "bufferView" : 34,
            "componentType" : 5126,
            "count" : 418,
            "max" : [
                2.2107279300689697,
                1.2957401275634766,
                2.2107279300689697
            ],
            "min" : [
                -2.2107279300689697,
                -1,
                -2.2107279300689697
            ],
            "type" : "VEC3"
        },
        {
            "bufferView" : 35,
            "componentType" : 5126,
            "count" : 418,
            "type" : "VEC3"
        },
        {
            "bufferView" : 36,
            "componentType" : 5126,
            "count" : 418,
            "type" : "VEC2"
        },
        {
            "bufferView" : 37,
            "componentType" : 5126,
            "count" : 418,
            "max" : [
                2.2107279300689697,
                1.2957401275634766,
                2.2107279300689697
            ],
            "min" : [
                -2.2107279300689697,
                -1,
                -2.2107279300689697
            ],
            "type" : "VEC3"
        },
        {
            "bufferView" : 38,
            "componentType" : 5126,
            "count" : 418,
            "type" : "VEC3"
        },
        {
            "bufferView" : 39,
            "componentType" : 5126,
            "count" : 418,
            "type" : "VEC2"
        },
        {
            "bufferView" : 40,
            "componentType" : 5126,
            "count" : 418,
            "max" : [
                2.2107279300689697,
                1.2957401275634766,
                2.2107279300689697
            ],
            "min" : [
                -2.2107279300689697,
                -1,
                -2.2107279300689697
            ],
            "type" : "VEC3"
        },
        {
            "bufferView" : 41,
            "componentType" : 5126,
            "count" : 418,
            "type" : "VEC3"
        },
        {
            "bufferView" : 42,
            "componentType" : 5126,
            "count" : 418,
            "type" : "VEC2"
        },
        {
            "bufferView" : 43,
            "componentType" : 5126,
            "count" : 418,
            "max" : [
                2.2107279300689697,
                1.2957401275634766,
                2.2107279300689697
            ],
            "min" : [
                -2.2107279300689697,
                -1,
                -2.2107279300689697
            ],
            "type" : "VEC3"
        },
        {
            "bufferView" : 44,
            "componentType" : 5126,
            "count" : 418,
            "type" : "VEC3"
        },
        {
            "bufferView" : 45,
            "componentType" : 5126,
            "count" : 418,
            "type" : "VEC2"
        },
        {
            "bufferView" : 46,
            "componentType" : 5126,
            "count" : 418,
            "max" : [
                2.2107279300689697,
                1.2957401275634766,
                2.2107279300689697
            ],
            "min" : [
                -2.2107279300689697,
                -1,
                -2.2107279300689697
            ],
            "type" : "VEC3"
        },
        {
            "bufferView" : 47,
            "componentType" : 5126,
            "count" : 418,
            "type" : "VEC3"
        },
        {
            "bufferView" : 48,
            "componentType" : 5126,
            "count" : 418,
            "type" : "VEC2"
        },
        {
            "bufferView" : 49,
            "componentType" : 5126,
            "count" : 418,
            "max" : [
                2.2107279300689697,
                1.2957401275634766,
                2.2107279300689697
            ],
            "min" : [
                -2.2107279300689697,
                -1,
                -2.2107279300689697
            ],
            "type" : "VEC3"
        },
        {
            "bufferView" : 50,
            "componentType" : 5126,
            "count" : 418,
            "type" : "VEC3"
        },
        {
            "bufferView" : 51,
            "componentType" : 5126,
            "count" : 418,
            "type" : "VEC2"
        },
        {
            "bufferView" : 52,
            "componentType" : 5126,
            "count" : 418,
            "max" : [
                2.2107279300689697,
                1.2957401275634766,
                2.2107279300689697
            ],
            "min" : [
                -2.2107279300689697,
                -1,
                -2.2107279300689697
            ],
            "type" : "VEC3"
        },
        {
            "bufferView" : 53,
            "componentType" : 5126,
            "count" : 418,
            "type" : "VEC3"
        },
        {
            "bufferView" : 54,
            "componentType" : 5126,
            "count" : 418,
            "type" : "VEC2"
        },
        {
            "bufferView" : 55,
            "componentType" : 5126,
            "count" : 418,
            "max" : [
                2.2107279300689697,
                1.2957401275634766,
                2.2107279300689697
            ],
            "min" : [
                -2.2107279300689697,
                -1,
                -2.2107279300689697
            ],
            "type" : "VEC3"
        },
        {
            "bufferView" : 56,
            "componentType" : 5126,
            "count" : 418,
            "type" : "VEC3"
        },
        {
            "bufferView" : 57,
            "componentType" : 5126,
            "count" : 418,
            "type" : "VEC2"
        },
        {
            "bufferView" : 58,
            "componentType" : 5126,
            "count" : 418,
            "max" : [
                2.2107279300689697,
                1.2957401275634766,
                2.2107279300689697
            ],
            "min" : [
                -2.2107279300689697,
                -1,
                -2.2107279300689697
            ],
            "type" : "VEC3"
        },
        {
            "bufferView" : 59,
            "componentType" : 5126,
            "count" : 418,
            "type" : "VEC3"
        },
        {
            "bufferView" : 60,
            "componentType" : 5126,
            "count" : 418,
            "type" : "VEC2"
        },
        {
            "bufferView" : 61,
            "componentType" : 5126,
            "count" : 418,
            "max" : [
                2.2107279300689697,
                1.2957401275634766,
                2.2107279300689697
            ],
            "min" : [
                -2.2107279300689697,
                -1,
                -2.2107279300689697
            ],
            "type" : "VEC3"
        },
        {
            "bufferView" : 62,
            "componentType" : 5126,
            "count" : 418,
            "type" : "VEC3"
        },
        {
            "bufferView" : 63,
            "componentType" : 5126,
            "count" : 418,
            "type" : "VEC2"
        },
        {
            "bufferView" : 64,
            "componentType" : 5126,
            "count" : 418,
            "max" : [
                2.2107279300689697,
                1.2957401275634766,
                2.2107279300689697
            ],
            "min" : [
                -2.2107279300689697,
                -1,
                -2.2107279300689697
            ],
            "type" : "VEC3"
        },
        {
            "bufferView" : 65,
            "componentType" : 5126,
            "count" : 418,
            "type" : "VEC3"
        },
        {
            "bufferView" : 66,
            "componentType" : 5126,
            "count" : 418,
            "type" : "VEC2"
        },
        {
            "bufferView" : 67,
            "componentType" : 5126,
            "count" : 418,
            "max" : [
                2.2107279300689697,
                1.2957401275634766,
                2.2107279300689697
            ],
            "min" : [
                -2.2107279300689697,
                -1,
                -2.2107279300689697
            ],
            "type" : "VEC3"
        },
        {
            "bufferView" : 68,
            "componentType" : 5126,
            "count" : 418,
            "type" : "VEC3"
        },
        {
            "bufferView" : 69,
            "componentType" : 5126,
            "count" : 418,
            "type" : "VEC2"
        },
        {
            "bufferView" : 70,
            "componentType" : 5126,
            "count" : 72,
            "max" : [
                -0.7736830711364746,
                1,
                1
            ],
            "min" : [
                -1,
                -1,
                -1
            ],
            "type" : "VEC3"
        },
        {
            "bufferView" : 71,
            "componentType" : 5126,
            "count" : 72,
            "type" : "VEC3"
        },
        {
            "bufferView" : 72,
            "componentType" : 5126,
            "count" : 72,
            "type" : "VEC2"
        },
        {
            "bufferView" : 73,
            "componentType" : 5123,
            "count" : 132,
            "type" : "SCALAR"
        },
        {
            "bufferView" : 74,
            "componentType" : 5126,
            "count" : 424,
            "max" : [
                18.60922622680664,
                0.8583715558052063,
                1
            ],
            "min" : [
                -1,
                -4.54466438293457,
                -1
            ],
            "type" : "VEC3"
        },
        {
            "bufferView" : 75,
            "componentType" : 5126,
            "count" : 424,
            "type" : "VEC3"
        },
        {
            "bufferView" : 76,
            "componentType" : 5126,
            "count" : 424,
            "type" : "VEC2"
        },
        {
            "bufferView" : 77,
            "componentType" : 5123,
            "count" : 684,
            "type" : "SCALAR"
        },
        {
            "bufferView" : 78,
            "componentType" : 5126,
            "count" : 1982,
            "max" : [
                4.497247695922852,
                5.193192481994629,
                1.3367265462875366
            ],
            "min" : [
                -1.2026703357696533,
                -1,
                -1.3367267847061157
            ],
            "type" : "VEC3"
        },
        {
            "bufferView" : 79,
            "componentType" : 5126,
            "count" : 1982,
            "type" : "VEC3"
        },
        {
            "bufferView" : 80,
            "componentType" : 5126,
            "count" : 1982,
            "type" : "VEC2"
        },
        {
            "bufferView" : 81,
            "componentType" : 5123,
            "count" : 3060,
            "type" : "SCALAR"
        },
        {
            "bufferView" : 82,
            "componentType" : 5126,
            "count" : 168,
            "max" : [
                5.1620941162109375,
                0,
                0.09628885984420776
            ],
            "min" : [
                -0.051932550966739655,
                0,
                -0.09628885984420776
            ],
            "type" : "VEC3"
        },
        {
            "bufferView" : 83,
            "componentType" : 5126,
            "count" : 168,
            "type" : "VEC3"
        },
        {
            "bufferView" : 84,
            "componentType" : 5126,
            "count" : 168,
            "type" : "VEC2"
        },
        {
            "bufferView" : 85,
            "componentType" : 5123,
            "count" : 252,
            "type" : "SCALAR"
        },
        {
            "bufferView" : 86,
            "componentType" : 5126,
            "count" : 24,
            "max" : [
                -0.6570180654525757,
                0.13546916842460632,
                1
            ],
            "min" : [
                -1,
                -1.5523390769958496,
                -1
            ],
            "type" : "VEC3"
        },
        {
            "bufferView" : 87,
            "componentType" : 5126,
            "count" : 24,
            "type" : "VEC3"
        },
        {
            "bufferView" : 88,
            "componentType" : 5126,
            "count" : 24,
            "type" : "VEC2"
        },
        {
            "bufferView" : 89,
            "componentType" : 5123,
            "count" : 36,
            "type" : "SCALAR"
        },
        {
            "bufferView" : 90,
            "componentType" : 5126,
            "count" : 4270,
            "max" : [
                5.896261692047119,
                4.988986492156982,
                1.0778136253356934
            ],
            "min" : [
                -1.3144381046295166,
                -4.506234169006348,
                -1.0778136253356934
            ],
            "type" : "VEC3"
        },
        {
            "bufferView" : 91,
            "componentType" : 5126,
            "count" : 4270,
            "type" : "VEC3"
        },
        {
            "bufferView" : 92,
            "componentType" : 5126,
            "count" : 4270,
            "type" : "VEC2"
        },
        {
            "bufferView" : 93,
            "componentType" : 5123,
            "count" : 6618,
            "type" : "SCALAR"
        },
        {
            "bufferView" : 94,
            "componentType" : 5126,
            "count" : 352,
            "max" : [
                1.4979292154312134,
                1.7900216579437256,
                1
            ],
            "min" : [
                -1.0352861881256104,
                -1.2352421283721924,
                -1
            ],
            "type" : "VEC3"
        },
        {
            "bufferView" : 95,
            "componentType" : 5126,
            "count" : 352,
            "type" : "VEC3"
        },
        {
            "bufferView" : 96,
            "componentType" : 5126,
            "count" : 352,
            "type" : "VEC2"
        },
        {
            "bufferView" : 97,
            "componentType" : 5123,
            "count" : 588,
            "type" : "SCALAR"
        },
        {
            "bufferView" : 98,
            "componentType" : 5126,
            "count" : 144,
            "max" : [
                1,
                0,
                1
            ],
            "min" : [
                -1,
                0,
                -1
            ],
            "type" : "VEC3"
        },
        {
            "bufferView" : 99,
            "componentType" : 5126,
            "count" : 144,
            "type" : "VEC3"
        },
        {
            "bufferView" : 100,
            "componentType" : 5126,
            "count" : 144,
            "type" : "VEC2"
        },
        {
            "bufferView" : 101,
            "componentType" : 5123,
            "count" : 726,
            "type" : "SCALAR"
        },
        {
            "bufferView" : 102,
            "componentType" : 5126,
            "count" : 4,
            "max" : [
                1,
                0,
                1
            ],
            "min" : [
                -1,
                0,
                -1
            ],
            "type" : "VEC3"
        },
        {
            "bufferView" : 103,
            "componentType" : 5126,
            "count" : 4,
            "type" : "VEC3"
        },
        {
            "bufferView" : 104,
            "componentType" : 5126,
            "count" : 4,
            "type" : "VEC2"
        },
        {
            "bufferView" : 105,
            "componentType" : 5123,
            "count" : 6,
            "type" : "SCALAR"
        },
        {
            "bufferView" : 106,
            "componentType" : 5126,
            "count" : 65,
            "max" : [
                2.7083333333333335
            ],
            "min" : [
                0.041666666666666664
            ],
            "type" : "SCALAR"
        },
        {
            "bufferView" : 107,
            "componentType" : 5126,
            "count" : 65,
            "type" : "VEC3"
        },
        {
            "bufferView" : 108,
            "componentType" : 5126,
            "count" : 114,
            "max" : [
                4.75
            ],
            "min" : [
                0.041666666666666664
            ],
            "type" : "SCALAR"
        },
        {
            "bufferView" : 109,
            "componentType" : 5126,
            "count" : 114,
            "type" : "VEC4"
        },
        {
            "bufferView" : 110,
            "componentType" : 5126,
            "count" : 65,
            "type" : "VEC3"
        },
        {
            "bufferView" : 111,
            "componentType" : 5126,
            "count" : 140,
            "max" : [
                5.833333333333333
            ],
            "min" : [
                0.041666666666666664
            ],
            "type" : "SCALAR"
        },
        {
            "bufferView" : 112,
            "componentType" : 5126,
            "count" : 140,
            "type" : "VEC3"
        },
        {
            "bufferView" : 113,
            "componentType" : 5126,
            "count" : 140,
            "type" : "VEC4"
        },
        {
            "bufferView" : 114,
            "componentType" : 5126,
            "count" : 201,
            "max" : [
                8.375
            ],
            "min" : [
                0.041666666666666664
            ],
            "type" : "SCALAR"
        },
        {
            "bufferView" : 115,
            "componentType" : 5126,
            "count" : 201,
            "type" : "VEC3"
        },
        {
            "bufferView" : 116,
            "componentType" : 5126,
            "count" : 1,
            "max" : [
                0.041666666666666664
            ],
            "min" : [
                0.041666666666666664
            ],
            "type" : "SCALAR"
        },
        {
            "bufferView" : 117,
            "componentType" : 5126,
            "count" : 1,
            "type" : "VEC4"
        },
        {
            "bufferView" : 118,
            "componentType" : 5126,
            "count" : 100,
            "max" : [
                4.166666666666667
            ],
            "min" : [
                0.041666666666666664
            ],
            "type" : "SCALAR"
        },
        {
            "bufferView" : 119,
            "componentType" : 5126,
            "count" : 100,
            "type" : "VEC3"
        },
        {
            "bufferView" : 120,
            "componentType" : 5126,
            "count" : 100,
            "type" : "VEC3"
        }
    ],
    "bufferViews" : [
        {
            "buffer" : 0,
            "byteLength" : 5016,
            "byteOffset" : 0,
            "target" : 34962
        },
        {
            "buffer" : 0,
            "byteLength" : 5016,
            "byteOffset" : 5016,
            "target" : 34962
        },
        {
            "buffer" : 0,
            "byteLength" : 3344,
            "byteOffset" : 10032,
            "target" : 34962
        },
        {
            "buffer" : 0,
            "byteLength" : 1512,
            "byteOffset" : 13376,
            "target" : 34963
        },
        {
            "buffer" : 0,
            "byteLength" : 5016,
            "byteOffset" : 14888,
            "target" : 34962
        },
        {
            "buffer" : 0,
            "byteLength" : 5016,
            "byteOffset" : 19904,
            "target" : 34962
        },
        {
            "buffer" : 0,
            "byteLength" : 3344,
            "byteOffset" : 24920,
            "target" : 34962
        },
        {
            "buffer" : 0,
            "byteLength" : 5016,
            "byteOffset" : 28264,
            "target" : 34962
        },
        {
            "buffer" : 0,
            "byteLength" : 5016,
            "byteOffset" : 33280,
            "target" : 34962
        },
        {
            "buffer" : 0,
            "byteLength" : 3344,
            "byteOffset" : 38296,
            "target" : 34962
        },
        {
            "buffer" : 0,
            "byteLength" : 5016,
            "byteOffset" : 41640,
            "target" : 34962
        },
        {
            "buffer" : 0,
            "byteLength" : 5016,
            "byteOffset" : 46656,
            "target" : 34962
        },
        {
            "buffer" : 0,
            "byteLength" : 3344,
            "byteOffset" : 51672,
            "target" : 34962
        },
        {
            "buffer" : 0,
            "byteLength" : 5016,
            "byteOffset" : 55016,
            "target" : 34962
        },
        {
            "buffer" : 0,
            "byteLength" : 5016,
            "byteOffset" : 60032,
            "target" : 34962
        },
        {
            "buffer" : 0,
            "byteLength" : 3344,
            "byteOffset" : 65048,
            "target" : 34962
        },
        {
            "buffer" : 0,
            "byteLength" : 5016,
            "byteOffset" : 68392,
            "target" : 34962
        },
        {
            "buffer" : 0,
            "byteLength" : 5016,
            "byteOffset" : 73408,
            "target" : 34962
        },
        {
            "buffer" : 0,
            "byteLength" : 3344,
            "byteOffset" : 78424,
            "target" : 34962
        },
        {
            "buffer" : 0,
            "byteLength" : 5016,
            "byteOffset" : 81768,
            "target" : 34962
        },
        {
            "buffer" : 0,
            "byteLength" : 5016,
            "byteOffset" : 86784,
            "target" : 34962
        },
        {
            "buffer" : 0,
            "byteLength" : 3344,
            "byteOffset" : 91800,
            "target" : 34962
        },
        {
            "buffer" : 0,
            "byteLength" : 5016,
            "byteOffset" : 95144,
            "target" : 34962
        },
        {
            "buffer" : 0,
            "byteLength" : 5016,
            "byteOffset" : 100160,
            "target" : 34962
        },
        {
            "buffer" : 0,
            "byteLength" : 3344,
            "byteOffset" : 105176,
            "target" : 34962
        },
        {
            "buffer" : 0,
            "byteLength" : 5016,
            "byteOffset" : 108520,
            "target" : 34962
        },
        {
            "buffer" : 0,
            "byteLength" : 5016,
            "byteOffset" : 113536,
            "target" : 34962
        },
        {
            "buffer" : 0,
            "byteLength" : 3344,
            "byteOffset" : 118552,
            "target" : 34962
        },
        {
            "buffer" : 0,
            "byteLength" : 5016,
            "byteOffset" : 121896,
            "target" : 34962
        },
        {
            "buffer" : 0,
            "byteLength" : 5016,
            "byteOffset" : 126912,
            "target" : 34962
        },
        {
            "buffer" : 0,
            "byteLength" : 3344,
            "byteOffset" : 131928,
            "target" : 34962
        },
        {
            "buffer" : 0,
            "byteLength" : 5016,
            "byteOffset" : 135272,
            "target" : 34962
        },
        {
            "buffer" : 0,
            "byteLength" : 5016,
            "byteOffset" : 140288,
            "target" : 34962
        },
        {
            "buffer" : 0,
            "byteLength" : 3344,
            "byteOffset" : 145304,
            "target" : 34962
        },
        {
            "buffer" : 0,
            "byteLength" : 5016,
            "byteOffset" : 148648,
            "target" : 34962
        },
        {
            "buffer" : 0,
            "byteLength" : 5016,
            "byteOffset" : 153664,
            "target" : 34962
        },
        {
            "buffer" : 0,
            "byteLength" : 3344,
            "byteOffset" : 158680,
            "target" : 34962
        },
        {
            "buffer" : 0,
            "byteLength" : 5016,
            "byteOffset" : 162024,
            "target" : 34962
        },
        {
            "buffer" : 0,
            "byteLength" : 5016,
            "byteOffset" : 167040,
            "target" : 34962
        },
        {
            "buffer" : 0,
            "byteLength" : 3344,
            "byteOffset" : 172056,
            "target" : 34962
        },
        {
            "buffer" : 0,
            "byteLength" : 5016,
            "byteOffset" : 175400,
            "target" : 34962
        },
        {
            "buffer" : 0,
            "byteLength" : 5016,
            "byteOffset" : 180416,
            "target" : 34962
        },
        {
            "buffer" : 0,
            "byteLength" : 3344,
            "byteOffset" : 185432,
            "target" : 34962
        },
        {
            "buffer" : 0,
            "byteLength" : 5016,
            "byteOffset" : 188776,
            "target" : 34962
        },
        {
            "buffer" : 0,
            "byteLength" : 5016,
            "byteOffset" : 193792,
            "target" : 34962
        },
        {
            "buffer" : 0,
            "byteLength" : 3344,
            "byteOffset" : 198808,
            "target" : 34962
        },
        {
            "buffer" : 0,
            "byteLength" : 5016,
            "byteOffset" : 202152,
            "target" : 34962
        },
        {
            "buffer" : 0,
            "byteLength" : 5016,
            "byteOffset" : 207168,
            "target" : 34962
        },
        {
            "buffer" : 0,
            "byteLength" : 3344,
            "byteOffset" : 212184,
            "target" : 34962
        },
        {
            "buffer" : 0,
            "byteLength" : 5016,
            "byteOffset" : 215528,
            "target" : 34962
        },
        {
            "buffer" : 0,
            "byteLength" : 5016,
            "byteOffset" : 220544,
            "target" : 34962
        },
        {
            "buffer" : 0,
            "byteLength" : 3344,
            "byteOffset" : 225560,
            "target" : 34962
        },
        {
            "buffer" : 0,
            "byteLength" : 5016,
            "byteOffset" : 228904,
            "target" : 34962
        },
        {
            "buffer" : 0,
            "byteLength" : 5016,
            "byteOffset" : 233920,
            "target" : 34962
        },
        {
            "buffer" : 0,
            "byteLength" : 3344,
            "byteOffset" : 238936,
            "target" : 34962
        },
        {
            "buffer" : 0,
            "byteLength" : 5016,
            "byteOffset" : 242280,
            "target" : 34962
        },
        {
            "buffer" : 0,
            "byteLength" : 5016,
            "byteOffset" : 247296,
            "target" : 34962
        },
        {
            "buffer" : 0,
            "byteLength" : 3344,
            "byteOffset" : 252312,
            "target" : 34962
        },
        {
            "buffer" : 0,
            "byteLength" : 5016,
            "byteOffset" : 255656,
            "target" : 34962
        },
        {
            "buffer" : 0,
            "byteLength" : 5016,
            "byteOffset" : 260672,
            "target" : 34962
        },
        {
            "buffer" : 0,
            "byteLength" : 3344,
            "byteOffset" : 265688,
            "target" : 34962
        },
        {
            "buffer" : 0,
            "byteLength" : 5016,
            "byteOffset" : 269032,
            "target" : 34962
        },
        {
            "buffer" : 0,
            "byteLength" : 5016,
            "byteOffset" : 274048,
            "target" : 34962
        },
        {
            "buffer" : 0,
            "byteLength" : 3344,
            "byteOffset" : 279064,
            "target" : 34962
        },
        {
            "buffer" : 0,
            "byteLength" : 5016,
            "byteOffset" : 282408,
            "target" : 34962
        },
        {
            "buffer" : 0,
            "byteLength" : 5016,
            "byteOffset" : 287424,
            "target" : 34962
        },
        {
            "buffer" : 0,
            "byteLength" : 3344,
            "byteOffset" : 292440,
            "target" : 34962
        },
        {
            "buffer" : 0,
            "byteLength" : 5016,
            "byteOffset" : 295784,
            "target" : 34962
        },
        {
            "buffer" : 0,
            "byteLength" : 5016,
            "byteOffset" : 300800,
            "target" : 34962
        },
        {
            "buffer" : 0,
            "byteLength" : 3344,
            "byteOffset" : 305816,
            "target" : 34962
        },
        {
            "buffer" : 0,
            "byteLength" : 864,
            "byteOffset" : 309160,
            "target" : 34962
        },
        {
            "buffer" : 0,
            "byteLength" : 864,
            "byteOffset" : 310024,
            "target" : 34962
        },
        {
            "buffer" : 0,
            "byteLength" : 576,
            "byteOffset" : 310888,
            "target" : 34962
        },
        {
            "buffer" : 0,
            "byteLength" : 264,
            "byteOffset" : 311464,
            "target" : 34963
        },
        {
            "buffer" : 0,
            "byteLength" : 5088,
            "byteOffset" : 311728,
            "target" : 34962
        },
        {
            "buffer" : 0,
            "byteLength" : 5088,
            "byteOffset" : 316816,
            "target" : 34962
        },
        {
            "buffer" : 0,
            "byteLength" : 3392,
            "byteOffset" : 321904,
            "target" : 34962
        },
        {
            "buffer" : 0,
            "byteLength" : 1368,
            "byteOffset" : 325296,
            "target" : 34963
        },
        {
            "buffer" : 0,
            "byteLength" : 23784,
            "byteOffset" : 326664,
            "target" : 34962
        },
        {
            "buffer" : 0,
            "byteLength" : 23784,
            "byteOffset" : 350448,
            "target" : 34962
        },
        {
            "buffer" : 0,
            "byteLength" : 15856,
            "byteOffset" : 374232,
            "target" : 34962
        },
        {
            "buffer" : 0,
            "byteLength" : 6120,
            "byteOffset" : 390088,
            "target" : 34963
        },
        {
            "buffer" : 0,
            "byteLength" : 2016,
            "byteOffset" : 396208,
            "target" : 34962
        },
        {
            "buffer" : 0,
            "byteLength" : 2016,
            "byteOffset" : 398224,
            "target" : 34962
        },
        {
            "buffer" : 0,
            "byteLength" : 1344,
            "byteOffset" : 400240,
            "target" : 34962
        },
        {
            "buffer" : 0,
            "byteLength" : 504,
            "byteOffset" : 401584,
            "target" : 34963
        },
        {
            "buffer" : 0,
            "byteLength" : 288,
            "byteOffset" : 402088,
            "target" : 34962
        },
        {
            "buffer" : 0,
            "byteLength" : 288,
            "byteOffset" : 402376,
            "target" : 34962
        },
        {
            "buffer" : 0,
            "byteLength" : 192,
            "byteOffset" : 402664,
            "target" : 34962
        },
        {
            "buffer" : 0,
            "byteLength" : 72,
            "byteOffset" : 402856,
            "target" : 34963
        },
        {
            "buffer" : 0,
            "byteLength" : 51240,
            "byteOffset" : 402928,
            "target" : 34962
        },
        {
            "buffer" : 0,
            "byteLength" : 51240,
            "byteOffset" : 454168,
            "target" : 34962
        },
        {
            "buffer" : 0,
            "byteLength" : 34160,
            "byteOffset" : 505408,
            "target" : 34962
        },
        {
            "buffer" : 0,
            "byteLength" : 13236,
            "byteOffset" : 539568,
            "target" : 34963
        },
        {
            "buffer" : 0,
            "byteLength" : 4224,
            "byteOffset" : 552804,
            "target" : 34962
        },
        {
            "buffer" : 0,
            "byteLength" : 4224,
            "byteOffset" : 557028,
            "target" : 34962
        },
        {
            "buffer" : 0,
            "byteLength" : 2816,
            "byteOffset" : 561252,
            "target" : 34962
        },
        {
            "buffer" : 0,
            "byteLength" : 1176,
            "byteOffset" : 564068,
            "target" : 34963
        },
        {
            "buffer" : 0,
            "byteLength" : 1728,
            "byteOffset" : 565244,
            "target" : 34962
        },
        {
            "buffer" : 0,
            "byteLength" : 1728,
            "byteOffset" : 566972,
            "target" : 34962
        },
        {
            "buffer" : 0,
            "byteLength" : 1152,
            "byteOffset" : 568700,
            "target" : 34962
        },
        {
            "buffer" : 0,
            "byteLength" : 1452,
            "byteOffset" : 569852,
            "target" : 34963
        },
        {
            "buffer" : 0,
            "byteLength" : 48,
            "byteOffset" : 571304,
            "target" : 34962
        },
        {
            "buffer" : 0,
            "byteLength" : 48,
            "byteOffset" : 571352,
            "target" : 34962
        },
        {
            "buffer" : 0,
            "byteLength" : 32,
            "byteOffset" : 571400,
            "target" : 34962
        },
        {
            "buffer" : 0,
            "byteLength" : 12,
            "byteOffset" : 571432,
            "target" : 34963
        },
        {
            "buffer" : 0,
            "byteLength" : 260,
            "byteOffset" : 571444
        },
        {
            "buffer" : 0,
            "byteLength" : 780,
            "byteOffset" : 571704
        },
        {
            "buffer" : 0,
            "byteLength" : 456,
            "byteOffset" : 572484
        },
        {
            "buffer" : 0,
            "byteLength" : 1824,
            "byteOffset" : 572940
        },
        {
            "buffer" : 0,
            "byteLength" : 780,
            "byteOffset" : 574764
        },
        {
            "buffer" : 0,
            "byteLength" : 560,
            "byteOffset" : 575544
        },
        {
            "buffer" : 0,
            "byteLength" : 1680,
            "byteOffset" : 576104
        },
        {
            "buffer" : 0,
            "byteLength" : 2240,
            "byteOffset" : 577784
        },
        {
            "buffer" : 0,
            "byteLength" : 804,
            "byteOffset" : 580024
        },
        {
            "buffer" : 0,
            "byteLength" : 2412,
            "byteOffset" : 580828
        },
        {
            "buffer" : 0,
            "byteLength" : 4,
            "byteOffset" : 583240
        },
        {
            "buffer" : 0,
            "byteLength" : 16,
            "byteOffset" : 583244
        },
        {
            "buffer" : 0,
            "byteLength" : 400,
            "byteOffset" : 583260
        },
        {
            "buffer" : 0,
            "byteLength" : 1200,
            "byteOffset" : 583660
        },
        {
            "buffer" : 0,
            "byteLength" : 1200,
            "byteOffset" : 584860
        }
    ],
    "samplers" : [
        {
            "magFilter" : 9729,
            "minFilter" : 9987
        }
    ],
    "buffers" : [
        {
            "byteLength" : 586060,
            "uri" : "machine1.bin"
        }
    ]
}
